{
  "project_info": {
    "project_number": "692488641052",
    "firebase_url": "https://android-app-6a902.firebaseio.com",
    "project_id": "android-app-6a902",
    "storage_bucket": "android-app-6a902.appspot.com"
  },
  "client": [
    {
      "client_info": {
        "mobilesdk_app_id": "1:692488641052:android:c7257322925a6501cc5dd9",
        "android_client_info": {
          "package_name": "com.skripsi.apotekku"
        }
      },
      "oauth_client": [
        {
          "client_id": "692488641052-s0qlhecvuo3hvnujrc70tmc0fqn9oqkk.apps.googleusercontent.com",
          "client_type": 1,
          "android_info": {
            "package_name": "com.skripsi.apotekku",
            "certificate_hash": "73384abaf7a04cdc10840a0a68c7c7c9a99c3967"
          }
        },
        {
          "client_id": "692488641052-e0g0msb0gong0grtv8cc65as6duedns0.apps.googleusercontent.com",
          "client_type": 3
        }
      ],
      "api_key": [
        {
          "current_key": "AIzaSyDy4OkG4Fq8SuZ-pCezEN-D9F2L2wQjQD4"
        }
      ],
      "services": {
        "appinvite_service": {
          "other_platform_oauth_client": [
            {
              "client_id": "692488641052-e0g0msb0gong0grtv8cc65as6duedns0.apps.googleusercontent.com",
              "client_type": 3
            }
          ]
        }
      }
    }
  ],
  "configuration_version": "1"
}